{
    "page": 1,
    "total_results": 10000,
    "total_pages": 500,
    "results": [
        {
            "popularity": 278.89,
            "vote_count": 1084,
            "video": false,
            "poster_path": "/cjr4NWURcVN3gW5FlHeabgBHLrY.jpg",
            "id": 547016,
            "adult": false,
            "backdrop_path": "/m0ObOaJBerZ3Unc74l471ar8Iiy.jpg",
            "original_language": "en",
            "original_title": "The Old Guard",
            "genre_ids": [
                28,
                14
            ],
            "title": "The Old Guard",
            "vote_average": 7.4,
            "overview": "Four undying warriors who've secretly protected humanity for centuries become targeted for their mysterious powers just as they discover a new immortal.",
            "release_date": "2020-07-10"
        },
        {
            "popularity": 223.848,
            "vote_count": 438,
            "video": false,
            "poster_path": "/kjMbDciooTbJPofVXgAoFjfX8Of.jpg",
            "id": 516486,
            "adult": false,
            "backdrop_path": "/xXBnM6uSTk6qqCf0SRZKXcga9Ba.jpg",
            "original_language": "en",
            "original_title": "Greyhound",
            "genre_ids": [
                28,
                18,
                10752
            ],
            "title": "Greyhound",
            "vote_average": 7.5,
            "overview": "A first-time captain leads a convoy of allied ships carrying thousands of soldiers across the treacherous waters of the “Black Pit” to the front lines of WW2. With no air cover protection for 5 days, the captain and his convoy must battle the surrounding enemy Nazi U-boats in order to give the allies a chance to win the war.",
            "release_date": "2020-07-10"
        },
        {
            "popularity": 144.409,
            "vote_count": 3954,
            "video": false,
            "poster_path": "/xBHvZcjRiWyobQ9kxBhO6B2dtRI.jpg",
            "id": 419704,
            "adult": false,
            "backdrop_path": "/AeDS2MKGFy6QcjgWbJBde0Ga6Hd.jpg",
            "original_language": "en",
            "original_title": "Ad Astra",
            "genre_ids": [
                18,
                878
            ],
            "title": "Ad Astra",
            "vote_average": 6.1,
            "overview": "The near future, a time when both hope and hardships drive humanity to look to the stars and beyond. While a mysterious phenomenon menaces to destroy life on planet Earth, astronaut Roy McBride undertakes a mission across the immensity of space and its many perils to uncover the truth about a lost expedition that decades before boldly faced emptiness and silence in search of the unknown.",
            "release_date": "2019-09-17"
        },
        {
            "popularity": 113.919,
            "vote_count": 53,
            "video": false,
            "poster_path": "/f4EAJ6PXNbxBb2xrdTrT2SlJlCH.jpg",
            "id": 714375,
            "adult": false,
            "backdrop_path": "/lMbUiOZh8wELqY63v3ou54yTvEG.jpg",
            "original_language": "en",
            "original_title": "Fatal Affair",
            "genre_ids": [
                53
            ],
            "title": "Fatal Affair",
            "vote_average": 4.9,
            "overview": "Ellie tries to mend her marriage with her husband Marcus after a brief encounter with an old friend, David, only to find that David is more dangerous and unstable than she'd realized.",
            "release_date": "2020-07-16"
        },
        {
            "popularity": 113,
            "vote_count": 218,
            "video": false,
            "poster_path": "/yf5IuMW6GHghu39kxA0oFx7Bxmj.jpg",
            "id": 587792,
            "adult": false,
            "backdrop_path": "/d7JUXVvjvVCXWs1mlpyO5ESdWdT.jpg",
            "original_language": "en",
            "original_title": "Palm Springs",
            "genre_ids": [
                35,
                878,
                10749
            ],
            "title": "Palm Springs",
            "vote_average": 7.6,
            "overview": "When carefree Nyles and reluctant maid of honor Sarah have a chance encounter at a Palm Springs wedding, things get complicated when they find themselves unable to escape the venue, themselves, or each other.",
            "release_date": "2020-01-26"
        },
        {
            "popularity": 83.344,
            "vote_count": 5119,
            "video": false,
            "poster_path": "/aQvJ5WPzZgYVDrxLX4R6cLJCEaQ.jpg",
            "id": 454626,
            "adult": false,
            "backdrop_path": "/stmYfCUGd8Iy6kAMBr6AmWqx8Bq.jpg",
            "original_language": "en",
            "original_title": "Sonic the Hedgehog",
            "genre_ids": [
                28,
                35,
                878,
                10751
            ],
            "title": "Sonic the Hedgehog",
            "vote_average": 7.5,
            "overview": "Based on the global blockbuster videogame franchise from Sega, Sonic the Hedgehog tells the story of the world’s speediest hedgehog as he embraces his new home on Earth. In this live-action adventure comedy, Sonic and his new best friend team up to defend the planet from the evil genius Dr. Robotnik and his plans for world domination.",
            "release_date": "2020-02-12"
        },
        {
            "popularity": 100.807,
            "vote_count": 179,
            "video": false,
            "poster_path": "/hPkqY2EMqWUnFEoedukilIUieVG.jpg",
            "id": 531876,
            "adult": false,
            "backdrop_path": "/n1RohH2VoK1CdVI2fXvcP19dSlm.jpg",
            "original_language": "en",
            "original_title": "The Outpost",
            "genre_ids": [
                28,
                18,
                36,
                10752
            ],
            "title": "The Outpost",
            "vote_average": 6.9,
            "overview": "A small unit of U.S. soldiers, alone at the remote Combat Outpost Keating, located deep in the valley of three mountains in Afghanistan, battles to defend against an overwhelming force of Taliban fighters in a coordinated attack. The Battle of Kamdesh, as it was known, was the bloodiest American engagement of the Afghan War in 2009 and Bravo Troop 3-61 CAV became one of the most decorated units of the 19-year conflict.",
            "release_date": "2020-06-24"
        },
        {
            "popularity": 99.69,
            "vote_count": 13832,
            "video": false,
            "poster_path": "/udDclJoHjfjb8Ekgsd4FDteOkCU.jpg",
            "id": 475557,
            "adult": false,
            "backdrop_path": "/n6bUvigpRFqSwmPp1m2YADdbRBc.jpg",
            "original_language": "en",
            "original_title": "Joker",
            "genre_ids": [
                80,
                18,
                53
            ],
            "title": "Joker",
            "vote_average": 8.2,
            "overview": "During the 1980s, a failed stand-up comedian is driven insane and turns to a life of crime and chaos in Gotham City while becoming an infamous psychopathic crime figure.",
            "release_date": "2019-10-02"
        },
        {
            "popularity": 98.408,
            "vote_count": 5090,
            "video": false,
            "poster_path": "/h4VB6m0RwcicVEZvzftYZyKXs6K.jpg",
            "id": 495764,
            "adult": false,
            "backdrop_path": "/9xNOiv6DZZjH7ABoUUDP0ZynouU.jpg",
            "original_language": "en",
            "original_title": "Birds of Prey (and the Fantabulous Emancipation of One Harley Quinn)",
            "genre_ids": [
                28,
                35,
                80,
                18
            ],
            "title": "Birds of Prey (and the Fantabulous Emancipation of One Harley Quinn)",
            "vote_average": 7.2,
            "overview": "Harley Quinn joins forces with a singer, an assassin and a police detective to help a young girl who had a hit placed on her after she stole a rare diamond from a crime lord.",
            "release_date": "2020-02-05"
        },
        {
            "popularity": 90.799,
            "vote_count": 6,
            "video": false,
            "poster_path": "/7AIU4rH3ExBHQg92UHYxFYxP82M.jpg",
            "id": 695476,
            "adult": false,
            "backdrop_path": "/8IjnyGbzcX5Ulb4kXLnecgWDEYA.jpg",
            "original_language": "en",
            "original_title": "Father Soldier Son",
            "genre_ids": [
                99,
                10752
            ],
            "title": "Father Soldier Son",
            "vote_average": 5.2,
            "overview": "When Sgt. First Class Brian Eisch is critically wounded in Afghanistan, it sets him and his sons on a journey of love, loss, redemption and legacy.",
            "release_date": "2020-07-17"
        },
        {
            "popularity": 81.292,
            "vote_count": 7,
            "video": false,
            "poster_path": "/7S9RvfMBWSTlUZ4VbxDY7oLeenk.jpg",
            "id": 581392,
            "adult": false,
            "backdrop_path": "/oamFZb8Gj5NJ24OLDd07wyNVX4N.jpg",
            "original_language": "ko",
            "original_title": "반도",
            "genre_ids": [
                28,
                27,
                53
            ],
            "title": "Peninsula",
            "vote_average": 6,
            "overview": "Peninsula takes place four years after Train to Busan as the characters fight to escape the land that is in ruins due to an unprecedented disaster.",
            "release_date": "2020-07-15"
        },
        {
            "popularity": 78.309,
            "vote_count": 13990,
            "video": false,
            "poster_path": "/6FfCtAuVAW8XJjZ7eWeLibRLWTw.jpg",
            "id": 11,
            "adult": false,
            "backdrop_path": "/zqkmTXzjkAgXmEWLRsY4UpTWCeo.jpg",
            "original_language": "en",
            "original_title": "Star Wars",
            "genre_ids": [
                28,
                12,
                878
            ],
            "title": "Star Wars",
            "vote_average": 8.2,
            "overview": "Princess Leia is captured and held hostage by the evil Imperial forces in their effort to take over the galactic Empire. Venturesome Luke Skywalker and dashing captain Han Solo team together with the loveable robot duo R2-D2 and C-3PO to rescue the beautiful princess and restore peace and justice in the Empire.",
            "release_date": "1977-05-25"
        },
        {
            "popularity": 88.033,
            "vote_count": 18979,
            "video": false,
            "poster_path": "/7WsyChQLEftFiDOVTGkv3hFpyyt.jpg",
            "id": 299536,
            "adult": false,
            "backdrop_path": "/bOGkgRGdhrBYJSLpXaxhXVstddV.jpg",
            "original_language": "en",
            "original_title": "Avengers: Infinity War",
            "genre_ids": [
                28,
                12,
                878
            ],
            "title": "Avengers: Infinity War",
            "vote_average": 8.3,
            "overview": "As the Avengers and their allies have continued to protect the world from threats too large for any one hero to handle, a new danger has emerged from the cosmic shadows: Thanos. A despot of intergalactic infamy, his goal is to collect all six Infinity Stones, artifacts of unimaginable power, and use them to inflict his twisted will on all of reality. Everything the Avengers have fought for has led up to this moment - the fate of Earth and existence itself has never been more uncertain.",
            "release_date": "2018-04-25"
        },
        {
            "popularity": 95.567,
            "vote_count": 23092,
            "video": false,
            "poster_path": "/gEU2QniE6E77NI6lCU6MxlNBvIx.jpg",
            "id": 157336,
            "adult": false,
            "backdrop_path": "/rAiYTfKGqDCRIIqo664sY9XZIvQ.jpg",
            "original_language": "en",
            "original_title": "Interstellar",
            "genre_ids": [
                12,
                18,
                878
            ],
            "title": "Interstellar",
            "vote_average": 8.3,
            "overview": "The adventures of a group of explorers who make use of a newly discovered wormhole to surpass the limitations on human space travel and conquer the vast distances involved in an interstellar voyage.",
            "release_date": "2014-11-05"
        },
        {
            "popularity": 86.878,
            "vote_count": 8431,
            "video": false,
            "poster_path": "/7IiTTgloJzvGI1TAYymCfbfl3vT.jpg",
            "id": 496243,
            "adult": false,
            "backdrop_path": "/ApiBzeaa95TNYliSbQ8pJv4Fje7.jpg",
            "original_language": "ko",
            "original_title": "기생충",
            "genre_ids": [
                35,
                18,
                53
            ],
            "title": "Parasite",
            "vote_average": 8.5,
            "overview": "All unemployed, Ki-taek's family takes peculiar interest in the wealthy and glamorous Parks for their livelihood until they get entangled in an unexpected incident.",
            "release_date": "2019-05-30"
        },
        {
            "popularity": 75.486,
            "vote_count": 6384,
            "video": false,
            "poster_path": "/dzBtMocZuJbjLOXvrl4zGYigDzh.jpg",
            "id": 420818,
            "adult": false,
            "backdrop_path": "/nRXO2SnOA75OsWhNhXstHB8ZmI3.jpg",
            "original_language": "en",
            "original_title": "The Lion King",
            "genre_ids": [
                12,
                16,
                10402,
                10751
            ],
            "title": "The Lion King",
            "vote_average": 7.2,
            "overview": "Simba idolizes his father, King Mufasa, and takes to heart his own royal destiny. But not everyone in the kingdom celebrates the new cub's arrival. Scar, Mufasa's brother—and former heir to the throne—has plans of his own. The battle for Pride Rock is ravaged with betrayal, tragedy and drama, ultimately resulting in Simba's exile. With help from a curious pair of newfound friends, Simba will have to figure out how to grow up and take back what is rightfully his.",
            "release_date": "2019-07-12"
        },
        {
            "popularity": 75.615,
            "vote_count": 309,
            "video": false,
            "poster_path": "/rpqfpSglhDpwihzsLaoketuYKbd.jpg",
            "id": 514207,
            "adult": false,
            "backdrop_path": "/cbJNZeFkiG4ggsNcwzBs6yeCXga.jpg",
            "original_language": "ru",
            "original_title": "Вторжение",
            "genre_ids": [
                28,
                878
            ],
            "title": "Invasion",
            "vote_average": 7.1,
            "overview": "After the fall of the alien ship, it took three years. The catastrophe turned the girl's life from Chertanovo and forever changed our view of the universe. It seems that this was the biggest test for all of us. But mankind does not yet know that very soon he will have to experience a new meeting.",
            "release_date": "2020-01-01"
        },
        {
            "popularity": 82.031,
            "vote_count": 5259,
            "video": false,
            "poster_path": "/db32LaOibwEliAmSL2jjDF6oDdj.jpg",
            "id": 181812,
            "adult": false,
            "backdrop_path": "/SPkEiZGxq5aHWQ2Zw7AITwSEo2.jpg",
            "original_language": "en",
            "original_title": "Star Wars: The Rise of Skywalker",
            "genre_ids": [
                28,
                12,
                878
            ],
            "title": "Star Wars: The Rise of Skywalker",
            "vote_average": 6.6,
            "overview": "The surviving Resistance faces the First Order once again as the journey of Rey, Finn and Poe Dameron continues. With the power and knowledge of generations behind them, the final battle begins.",
            "release_date": "2019-12-18"
        },
        {
            "popularity": 73.293,
            "vote_count": 166,
            "video": false,
            "poster_path": "/jHo2M1OiH9Re33jYtUQdfzPeUkx.jpg",
            "id": 385103,
            "adult": false,
            "backdrop_path": "/fKtYXUhX5fxMxzQfyUcQW9Shik6.jpg",
            "original_language": "en",
            "original_title": "Scoob!",
            "genre_ids": [
                12,
                16,
                35,
                9648,
                10751
            ],
            "title": "Scoob!",
            "vote_average": 7.9,
            "overview": "In Scooby-Doo’s greatest adventure yet, see the never-before told story of how lifelong friends Scooby and Shaggy first met and how they joined forces with young detectives Fred, Velma, and Daphne to form the famous Mystery Inc. Now, with hundreds of cases solved, Scooby and the gang face their biggest, toughest mystery ever: an evil plot to unleash the ghost dog Cerberus upon the world. As they race to stop this global “dogpocalypse,” the gang discovers that Scooby has a secret legacy and an epic destiny greater than anyone ever imagined.",
            "release_date": "2020-07-08"
        },
        {
            "popularity": 62.459,
            "vote_count": 663,
            "video": false,
            "poster_path": "/tI8ocADh22GtQFV28vGHaBZVb0U.jpg",
            "id": 475430,
            "adult": false,
            "backdrop_path": "/o0F8xAt8YuEm5mEZviX5pEFC12y.jpg",
            "original_language": "en",
            "original_title": "Artemis Fowl",
            "genre_ids": [
                12,
                14,
                878,
                10751
            ],
            "title": "Artemis Fowl",
            "vote_average": 5.9,
            "overview": "Artemis Fowl is a 12-year-old genius and descendant of a long line of criminal masterminds. He soon finds himself in an epic battle against a race of powerful underground fairies who may be behind his father's disappearance.",
            "release_date": "2020-06-12"
        }
    ]
}
